<?xml version="1.0" encoding="UTF-8"?>
<CustomTab xmlns="http://soap.sforce.com/2006/04/metadata">
    <description>Facturacion ADQ JMO</description>
    <label>Facturación</label>
    <mobileReady>false</mobileReady>
    <motif>Custom42: Treasure chest</motif>
    <page>ADQ_OpcionesFacturacion</page>
</CustomTab>
