<?xml version="1.0" encoding="UTF-8"?>
<CustomTab xmlns="http://soap.sforce.com/2006/04/metadata">
    <auraComponent>GesCam</auraComponent>
    <description>Gestión del Cambio</description>
    <label>Gestión del Cambio</label>
    <mobileReady>false</mobileReady>
    <motif>Custom4: Hexagon</motif>
</CustomTab>
