<?xml version="1.0" encoding="UTF-8"?>
<CustomTab xmlns="http://soap.sforce.com/2006/04/metadata">
    <label>Dashboard Videowall</label>
    <mobileReady>false</mobileReady>
    <motif>Custom100: TV Widescreen</motif>
    <page>DashboardVideowall</page>
</CustomTab>
